Chile
…
Chile %>% count(EARNMTH) 

## Warning: Factor `EARNMTH` contains implicit NA, consider using
## `forcats::fct_explicit_na`

## # A tibble: 373 x 2
##    EARNMTH        n
##    <fct>      <int>
##  1 100000.00     10
##  2 1000000.00    45
##  3 1001000.00     1
##  4 101400.00      1
##  5 104000.00      1
##  6 1040000.00     2
##  7 1050000.00     1
##  8 1060000.00     1
##  9 1070000.00     2
## 10 108333.33     13
## #  with 363 more rows

Chile %>% count(EARNHR) #2732

## Warning: Factor `EARNHR` contains implicit NA, consider using
## `forcats::fct_explicit_na`

## # A tibble: 835 x 2
##    EARNHR       n
##    <fct>    <int>
##  1 1000.00     13
##  2 10000.00    13
##  3 1001.93      1
##  4 1011.56      5
##  5 10115.61     1
##  6 1022.73      1
##  7 1023.12      1
##  8 1025.64      1
##  9 1027.62     13
## 10 1027.87      1
## #  with 825 more rows
…
Chile %>% count(EARNHRPPP)

## Warning: Factor `EARNHRPPP` contains implicit NA, consider using
## `forcats::fct_explicit_na`

## # A tibble: 718 x 2
##    EARNHRPPP     n
##    <fct>     <int>
##  1 1.07          1
##  2 1.13          1
##  3 1.17          2
##  4 1.27          2
##  5 1.30          2
##  6 1.32          2
##  7 1.37          2
##  8 1.43          3
##  9 1.44          1
## 10 1.47          2
## #  with 708 more rows

Chile %>% count(EARNHRBONUS)#103 ESPACIOS EN BLANCO

## Warning: Factor `EARNHRBONUS` contains implicit NA, consider using
## `forcats::fct_explicit_na`

## # A tibble: 1,442 x 2
##    EARNHRBONUS     n
##    <fct>       <int>
##  1 1000.00        11
##  2 10000.00        7
##  3 1001.93         1
##  4 10017.79        2
##  5 10056.56        1
##  6 1009.85         1
##  7 10096.15        2
##  8 10099.70        1
##  9 1010.49         1
## 10 10103.26        2
## #  with 1,432 more rows
…
Chile %>% count(EARNHRBONUSPPP) #1033

## Warning: Factor `EARNHRBONUSPPP` contains implicit NA, consider using
## `forcats::fct_explicit_na`

## # A tibble: 1,023 x 2
##    EARNHRBONUSPPP     n
##    <fct>          <int>
##  1 1.07               1
##  2 1.13               1
##  3 1.17               1
##  4 1.30               2
##  5 1.33               1
##  6 1.37               1
##  7 1.43               2
##  8 1.44               1
##  9 1.47               2
## 10 1.48               1
## #  with 1,013 more rows
…
