PeruOECD
…
newMexico1 %>% count(H_Q03h)

## # A tibble: 6 x 2
##   H_Q03h     n
##   <fct>  <int>
## 1 1       3125
## 2 2        112
## 3 3         62
## 4 4         89
## 5 5         68
## 6 N          3

newMexico1 %>% count(REG_TL2)

## # A tibble: 32 x 2
##    REG_TL2     n
##    <fct>   <int>
##  1 ME01       39
##  2 ME02      145
##  3 ME03       25
##  4 ME04       24
##  5 ME05      100
##  6 ME06       18
##  7 ME07      111
##  8 ME08      143
##  9 ME09      292
## 10 ME10       48
## #  with 22 more rows
…
