Ecuador
…
# Children and parents level of education
newEcuador1 %>% count(J_Q03a)

## # A tibble: 3 x 2
##   J_Q03a     n
##   <fct>  <int>
## 1 1       2188
## 2 2        724
## 3 N          2

newEcuador1 %>% count(J_Q03b) #943

## # A tibble: 21 x 2
##    J_Q03b     n
##    <fct>  <int>
##  1 1        527
##  2 10         5
##  3 11         2
##  4 12         1
##  5 13         1
##  6 14         2
##  7 15         1
##  8 16         1
##  9 2        645
## 10 20         1
## #  with 11 more rows
…
## # A tibble: 7 x 2
##   YEARLYINCPR     n
##         <int> <int>
## 1           1   509
## 2           2   351
## 3           3   591
## 4           4   760
## 5           5   494
## 6           6   209
## 7          NA  2788

Ecuador  %>% count(EARNMTH) #2847

## # A tibble: 295 x 2
##    EARNMTH       n
##    <fct>     <int>
##  1 ""          115
##  2 "10"          1
##  3 "100"        10
##  4 "1000"       18
##  5 "1005.33"     1
##  6 "1020"        1
##  7 "104"         1
##  8 "1058"        1
##  9 "108.33"     15
## 10 "1080"        1
## #  with 285 more rows

Ecuador  %>% count(EARNMTHPPP) #3t68

## # A tibble: 295 x 2
##    EARNMTHPPP     n
##    <fct>      <int>
##  1 ""           115
##  2 "100.16"       1
##  3 "1001.63"     34
##  4 "1017.04"     18
##  5 "1033.68"      1
##  6 "1035.53"      1
##  7 "1041.69"      7
##  8 "1044.77"      1
##  9 "1046.62"      1
## 10 "1054.02"      1
## #  with 285 more rows

Ecuador  %>% count(EARNHR)#3758

## # A tibble: 451 x 2
##    EARNHR     n
##    <fct>  <int>
##  1 ""       115
##  2 "0.06"     1
##  3 "0.07"     1
##  4 "0.13"     1
##  5 "0.14"     1
##  6 "0.21"     1
##  7 "0.24"     1
##  8 "0.29"     3
##  9 "0.31"     1
## 10 "0.36"     1
## #  with 441 more rows

Ecuador  %>% count(EARNHRBONUS) # 97 ESPACIOS VACIOS 

## # A tibble: 573 x 2
##    EARNHRBONUS     n
##    <fct>       <int>
##  1 ""            118
##  2 "0.06"          1
##  3 "0.07"          1
##  4 "0.13"          1
##  5 "0.14"          1
##  6 "0.24"          1
##  7 "0.29"          3
##  8 "0.31"          1
##  9 "0.36"          1
## 10 "0.39"          2
## #  with 563 more rows

Ecuador  %>% count(ICTWORK)

## # A tibble: 562 x 2
##    ICTWORK       n
##    <fct>     <int>
##  1 ""           35
##  2 "0.23097"     3
##  3 "0.254"       6
##  4 "0.33628"     1
##  5 "0.33677"     2
##  6 "0.36914"     2
##  7 "0.38284"     1
##  8 "0.41841"     1
##  9 "0.42779"     1
## 10 "0.4318"      1
## #  with 552 more rows

Ecuador  %>% count(EARNHRBONUSPPP) # 97 vacios usd 

## # A tibble: 741 x 2
##    EARNHRBONUSPPP     n
##    <fct>          <int>
##  1 ""               118
##  2 "0.11"             1
##  3 "0.13"             1
##  4 "0.24"             1
##  5 "0.26"             1
##  6 "0.45"             1
##  7 "0.53"             3
##  8 "0.57"             1
##  9 "0.67"             1
## 10 "0.71"             2
## #  with 731 more rows
…
