Peru
…
## # A tibble: 7 x 2
##   H_Q03h     n
##   <fct>  <int>
## 1 1       4235
## 2 2        246
## 3 3         94
## 4 4        173
## 5 5         72
## 6 D          2
## 7 N          3

# Region
newPeru1 %>% count(REG_TL2)

## # A tibble: 25 x 2
##    REG_TL2     n
##    <fct>   <int>
##  1 PE01       41
##  2 PE02      147
##  3 PE03       67
##  4 PE04      269
##  5 PE05       90
##  6 PE06      127
##  7 PE07      189
##  8 PE08      168
##  9 PE09       28
## 10 PE10       96
## #  with 15 more rows
…
Peru %>% count(EARNHRBONUS) # # N 2550 v 4627

## # A tibble: 3 x 2
##   EARNHRBONUS     n
##   <fct>       <int>
## 1 ""            112
## 2 "N"          2550
## 3 "V"          4627

Peru %>% count(ICTWORK) # N 2550 v 4627

## # A tibble: 946 x 2
##    ICTWORK       n
##    <fct>     <int>
##  1 ""           15
##  2 "0.16326"     2
##  3 "0.20762"     1
##  4 "0.23097"     1
##  5 "0.254"      10
##  6 "0.33628"     2
##  7 "0.33677"     3
##  8 "0.36914"     1
##  9 "0.38284"     1
## 10 "0.42779"     2
## #  with 936 more rows
…
